{
  "development": {
    "username": "root",
    "password": "rootpass",
    "database": "nentora_production",
    "host": "127.0.0.1",
    "dialect": "mysql",
    "operatorsAliases": false,
    "logging": false
  },
  "test": {
    "username": "root",
    "password": null,
    "database": "database_test",
    "host": "127.0.0.1",
    "dialect": "mysql",
    "operatorsAliases": false
  },
  "production": {
    "username": "root",
    "password": "rootpass",
    "database": "nentora_production",
    "host": "127.0.0.1",
    "dialect": "mysql",
    "operatorsAliases": false,
    "logging": false
  }
}
